{"properties": [
  {
    "name": "redis.serial",
    "type": "java.lang.String",
    "description": "A description for 'redis.serial'"
  },
  {
    "name": "redis.serializable",
    "type": "java.lang.String",
    "description": "A description for 'redis.serializable'"
  },
  {
    "name": "redis.name",
    "type": "java.lang.String",
    "description": "A description for 'redis.name'"
  },
  {
    "name": "serializable",
    "type": "java.lang.String",
    "description": "A description for 'serializable'"
  },
  {
    "name": "redis.server",
    "type": "java.lang.String",
    "description": "A description for 'redis.server'"
  }
]}